#VRML V2.0 utf8


Group {
  children 
    Group {
      children [ 
        Group {
          children 
            Transform {
              translation 0.32229039 -0.55293709 0.73096472
              rotation 0 0 1  0
              scale 1 1 1
              scaleOrientation 0 0 1  0

            }

        },
          
        Group {
          children 
            Transform {
              translation -0.0031237011 0.62712038 0.72869867
              rotation 0 0 1  0
              scale 1 1 1
              scaleOrientation 0 0 1  0

            }

        },
          
        Group {
          children 
            Transform {
              translation -0.3803902 0.64725441 0.72717291
              rotation 0 0 1  0
              scale 1 1 1
              scaleOrientation 0 0 1  0

            }

        },
          
        Group {
          children 
            Transform {
              translation -0.44088361 -0.5136953 0.7276001
              rotation 0 0 1  0
              scale 1 1 1
              scaleOrientation 0 0 1  0

            }

        },
          
        Group {
          children 
            Transform {
              translation -0 0 -0
              rotation 0 0 1  0
              scale 1 1 1
              scaleOrientation 0 0 1  0
              children 
                Transform {
                  translation 0.034230489 0.037822381 0.50835901
                  rotation 0 0 -1.0001396  0.055270366
                  scale 1 1 1
                  scaleOrientation 0 0 1  0
                  children 
                    Shape {
                      appearance 
                      Appearance {
                        material 
                        Material {
                          diffuseColor 0.082742639 0.082742639 0.082742639

                        }

                      }
                      geometry 
                      IndexedFaceSet {
                        coord 
                        Coordinate {
                          point [ 0.28395599 0.56719792 -0.56835181,
                              0.28395599 0.56804627 0.18805081,
                              0.28712541 0.56688583 -0.56835181,
                              0.2871224 0.56771779 0.18805081,
                              0.29017299 0.5659613 -0.56835181,
                              0.29016721 0.5667451 0.18805081,
                              0.29298171 0.56445998 -0.56835181,
                              0.29297331 0.5651654 0.18805081,
                              0.29544351 0.56243962 -0.56835181,
                              0.2954329 0.56303948 0.18805081,
                              0.29746389 0.55997783 -0.56835181,
                              0.29745129 0.56044912 0.18805081,
                              0.29896519 0.55716908 -0.56835181,
                              0.29895121 0.55749381 0.18805081,
                              0.29988971 0.55412149 -0.56835181,
                              0.2998749 0.55428702 0.18805081,
                              0.3002018 0.55095208 -0.56835181,
                              0.30018669 0.55095208 0.18805081,
                              0.29988971 0.54778272 -0.56835181,
                              0.2998749 0.54761708 0.18805081,
                              0.29896519 0.54473501 -0.56835181,
                              0.29895121 0.54441041 0.18805081,
                              0.29746389 0.54192632 -0.56835181,
                              0.29745129 0.54145497 0.18805081,
                              0.29544351 0.53946447 -0.56835181,
                              0.2954329 0.53886461 0.18805081,
                              0.29298171 0.53744411 -0.56835181,
                              0.29297331 0.53673881 0.18805081,
                              0.29017299 0.53594291 -0.56835181,
                              0.29016721 0.53515911 0.18805081,
                              0.28712541 0.53501832 -0.56835181,
                              0.2871224 0.5341863 0.18805081,
                              0.2839559 0.53470618 -0.56835181,
                              0.2839559 0.53385788 0.18805081,
                              0.2807866 0.53501832 -0.56835181,
                              0.28078949 0.5341863 0.18805081,
                              0.2777389 0.53594291 -0.56835181,
                              0.27774471 0.53515911 0.18805081,
                              0.27493021 0.53744411 -0.56835181,
                              0.2749387 0.53673881 0.18805081,
                              0.27246839 0.53946447 -0.56835181,
                              0.27247909 0.53886461 0.18805081,
                              0.270448 0.54192632 -0.56835181,
                              0.27046061 0.54145497 0.18805081,
                              0.26894671 0.54473507 -0.56835181,
                              0.26896071 0.54441041 0.18805081,
                              0.26802221 0.54778272 -0.56835181,
                              0.26803711 0.54761708 0.18805081,
                              0.26771009 0.55095208 -0.56835181,
                              0.2677252 0.55095208 0.18805081,
                              0.26802221 0.55412149 -0.56835181,
                              0.26803711 0.55428702 0.18805081,
                              0.2689468 0.55716908 -0.56835181,
                              0.26896071 0.55749381 0.18805081,
                              0.270448 0.55997783 -0.56835181,
                              0.27046061 0.56044912 0.18805081,
                              0.27246839 0.56243962 -0.56835181,
                              0.27247909 0.56303948 0.18805081,
                              0.27493021 0.56445998 -0.56835181,
                              0.2749387 0.5651654 0.18805081,
                              0.27773899 0.5659613 -0.56835181,
                              0.2777448 0.5667451 0.18805081,
                              0.2807866 0.56688583 -0.56835181,
                              0.28078961 0.56771779 0.18805081,
                              0.3535195 -0.60644072 0.20280939,
                              -0.47216401 -0.60644072 0.20280939,
                              0.3535195 0.6215232 0.20280939,
                              -0.47216401 0.6215232 0.20280939,
                              0.3535195 -0.60644072 0.1896525,
                              -0.47216401 -0.60644072 0.1896525,
                              0.3535195 0.6215232 0.1896525,
                              -0.47216401 0.6215232 0.1896525,
                              -0.4152998 0.58381867 -0.56835181,
                              -0.4152998 0.58466709 0.18805081,
                              -0.41213039 0.58350658 -0.56835181,
                              -0.4121334 0.58433861 0.18805081,
                              -0.4090828 0.58258212 -0.56835181,
                              -0.40908861 0.58336592 0.18805081,
                              -0.40627411 0.58108079 -0.56835181,
                              -0.40628251 0.58178622 0.18805081,
                              -0.40381229 0.57906038 -0.56835181,
                              -0.40382299 0.5796603 0.18805081,
                              -0.4017919 0.57659858 -0.56835181,
                              -0.40180451 0.57706988 0.18805081,
                              -0.40029061 0.57378989 -0.56835181,
                              -0.40030459 0.57411462 0.18805081,
                              -0.39936611 0.57074231 -0.56835181,
                              -0.39938089 0.57090777 0.18805081,
                              -0.39905399 0.56757289 -0.56835181,
                              -0.3990691 0.56757289 0.18805081,
                              -0.39936611 0.56440347 -0.56835181,
                              -0.39938089 0.56423801 0.18805081,
                              -0.40029061 0.56135583 -0.56835181,
                              -0.40030459 0.56103122 0.18805081,
                              -0.4017919 0.55854708 -0.56835181,
                              -0.40180451 0.5580759 0.18805081,
                              -0.40381229 0.55608529 -0.56835181,
                              -0.40382299 0.55548543 0.18805081,
                              -0.40627411 0.55406493 -0.56835181,
                              -0.40628251 0.55335963 0.18805081,
                              -0.4090828 0.55256373 -0.56835181,
                              -0.40908861 0.55177993 0.18805081,
                              -0.41213039 0.55163908 -0.56835181,
                              -0.4121334 0.55080712 0.18805081,
                              -0.4152998 0.55132699 -0.56835181,
                              -0.4152998 0.5504787 0.18805081,
                              -0.41846931 0.55163908 -0.56835181,
                              -0.4184663 0.55080712 0.18805081,
                              -0.42151681 0.55256373 -0.56835181,
                              -0.42151111 0.55177993 0.18805081,
                              -0.42432559 0.55406493 -0.56835181,
                              -0.42431721 0.55335963 0.18805081,
                              -0.42678741 0.55608529 -0.56835181,
                              -0.42677671 0.55548543 0.18805081,
                              -0.4288078 0.55854708 -0.56835181,
                              -0.42879519 0.5580759 0.18805081,
                              -0.43030909 0.56135589 -0.56835181,
                              -0.43029511 0.56103122 0.18805081,
                              -0.4312335 0.56440347 -0.56835181,
                              -0.4312188 0.56423801 0.18805081,
                              -0.4315457 0.56757289 -0.56835181,
                              -0.43153059 0.56757289 0.18805081,
                              -0.4312335 0.57074231 -0.56835181,
                              -0.43121871 0.57090777 0.18805081,
                              -0.43030909 0.57378989 -0.56835181,
                              -0.43029511 0.57411462 0.18805081,
                              -0.4288078 0.57659858 -0.56835181,
                              -0.42879519 0.57706988 0.18805081,
                              -0.42678741 0.57906038 -0.56835181,
                              -0.42677671 0.5796603 0.18805081,
                              -0.4243255 0.58108091 -0.56835181,
                              -0.42431709 0.58178622 0.18805081,
                              -0.42151681 0.58258212 -0.56835181,
                              -0.42151111 0.58336592 0.18805081,
                              -0.41846919 0.58350658 -0.56835181,
                              -0.4184663 0.58433861 0.18805081,
                              -0.41535601 -0.53974497 -0.56835181,
                              -0.41535601 -0.53889668 0.18805081,
                              -0.41218659 -0.54005718 -0.56835181,
                              -0.4121896 -0.53922522 0.18805081,
                              -0.40913901 -0.54098171 -0.56835181,
                              -0.40914479 -0.54019791 0.18805081,
                              -0.40633041 -0.54248297 -0.56835181,
                              -0.40633869 -0.54177761 0.18805081,
                              -0.4038685 -0.54450327 -0.56835181,
                              -0.4038792 -0.54390353 0.18805081,
                              -0.40184811 -0.54696518 -0.56835181,
                              -0.40186071 -0.54649389 0.18805081,
                              -0.40034679 -0.54977387 -0.56835181,
                              -0.40036079 -0.54944921 0.18805081,
                              -0.39942241 -0.55282152 -0.56835181,
                              -0.3994371 -0.55265599 0.18805081,
                              -0.3991102 -0.55599087 -0.56835181,
                              -0.39912531 -0.55599087 0.18805081,
                              -0.39942241 -0.55916029 -0.56835181,
                              -0.3994371 -0.55932581 0.18805081,
                              -0.40034679 -0.56220788 -0.56835181,
                              -0.40036079 -0.5625326 0.18805081,
                              -0.40184811 -0.56501663 -0.56835181,
                              -0.40186071 -0.56548792 0.18805081,
                              -0.4038685 -0.56747848 -0.56835181,
                              -0.4038792 -0.56807828 0.18805081,
                              -0.40633041 -0.56949878 -0.56835181,
                              -0.40633869 -0.5702042 0.18805081,
                              -0.40913901 -0.5710001 -0.56835181,
                              -0.40914479 -0.5717839 0.18805081,
                              -0.41218659 -0.57192463 -0.56835181,
                              -0.4121896 -0.57275671 0.18805081,
                              -0.41535601 -0.57223678 -0.56835181,
                              -0.41535601 -0.57308513 0.18805081,
                              -0.41852549 -0.57192463 -0.56835181,
                              -0.41852251 -0.57275671 0.18805081,
                              -0.4215731 -0.5710001 -0.56835181,
                              -0.42156729 -0.5717839 0.18805081,
                              -0.42438179 -0.56949878 -0.56835181,
                              -0.42437339 -0.5702042 0.18805081,
                              -0.42684361 -0.56747848 -0.56835181,
                              -0.42683291 -0.56807828 0.18805081,
                              -0.428864 -0.56501663 -0.56835181,
                              -0.4288514 -0.56548792 0.18805081,
                              -0.43036529 -0.56220788 -0.56835181,
                              -0.43035129 -0.5625326 0.18805081,
                              -0.4312897 -0.55916029 -0.56835181,
                              -0.43127501 -0.55932581 0.18805081,
                              -0.43160191 -0.55599087 -0.56835181,
                              -0.4315868 -0.55599087 0.18805081,
                              -0.4312897 -0.55282152 -0.56835181,
                              -0.43127489 -0.55265599 0.18805081,
                              -0.43036529 -0.54977387 -0.56835181,
                              -0.43035129 -0.54944921 0.18805081,
                              -0.428864 -0.54696518 -0.56835181,
                              -0.4288514 -0.54649383 0.18805081,
                              -0.42684361 -0.54450327 -0.56835181,
                              -0.42683291 -0.54390353 0.18805081,
                              -0.4243817 -0.54248291 -0.56835181,
                              -0.4243733 -0.54177761 0.18805081,
                              -0.4215731 -0.54098171 -0.56835181,
                              -0.42156729 -0.54019791 0.18805081,
                              -0.4185254 -0.54005718 -0.56835181,
                              -0.41852251 -0.53922522 0.18805081,
                              0.30438849 -0.55177498 -0.56835181,
                              0.30438849 -0.55092669 0.18805081,
                              0.30755779 -0.55208719 -0.56835181,
                              0.3075549 -0.55125523 0.18805081,
                              0.3106055 -0.55301172 -0.56835181,
                              0.31059971 -0.55222791 0.18805081,
                              0.31341419 -0.55451298 -0.56835181,
                              0.31340581 -0.55380762 0.18805081,
                              0.31587601 -0.55653328 -0.56835181,
                              0.31586531 -0.55593348 0.18805081,
                              0.3178964 -0.55899519 -0.56835181,
                              0.31788379 -0.55852389 0.18805081,
                              0.31939769 -0.56180388 -0.56835181,
                              0.31938371 -0.56147921 0.18805081,
                              0.32032219 -0.56485152 -0.56835181,
                              0.32030731 -0.564686 0.18805081,
                              0.32063431 -0.56802088 -0.56835181,
                              0.3206192 -0.56802088 0.18805081,
                              0.32032219 -0.5711903 -0.56835181,
                              0.32030731 -0.57135582 0.18805081,
                              0.31939769 -0.574238 -0.56835181,
                              0.31938371 -0.57456261 0.18805081,
                              0.3178964 -0.57704657 -0.56835181,
                              0.31788379 -0.57751793 0.18805081,
                              0.31587601 -0.57950848 -0.56835181,
                              0.31586531 -0.5801084 0.18805081,
                              0.31341419 -0.5815289 -0.56835181,
                              0.31340581 -0.5822342 0.18805081,
                              0.3106055 -0.5830301 -0.56835181,
                              0.31059971 -0.58381391 0.18805081,
                              0.30755779 -0.58395457 -0.56835181,
                              0.3075549 -0.58478671 0.18805081,
                              0.3043884 -0.58426678 -0.56835181,
                              0.3043884 -0.58511508 0.18805081,
                              0.30121911 -0.58395457 -0.56835181,
                              0.301222 -0.58478671 0.18805081,
                              0.2981714 -0.5830301 -0.56835181,
                              0.29817721 -0.58381391 0.18805081,
                              0.29536271 -0.5815289 -0.56835181,
                              0.29537109 -0.5822342 0.18805081,
                              0.29290089 -0.57950848 -0.56835181,
                              0.2929115 -0.5801084 0.18805081,
                              0.2908805 -0.57704657 -0.56835181,
                              0.29089311 -0.57751793 0.18805081,
                              0.28937921 -0.57423788 -0.56835181,
                              0.28939319 -0.57456261 0.18805081,
                              0.28845471 -0.5711903 -0.56835181,
                              0.28846961 -0.57135582 0.18805081,
                              0.28814259 -0.56802088 -0.56835181,
                              0.2881577 -0.56802088 0.18805081,
                              0.28845471 -0.56485152 -0.56835181,
                              0.28846961 -0.564686 0.18805081,
                              0.28937921 -0.56180388 -0.56835181,
                              0.28939319 -0.56147921 0.18805081,
                              0.2908805 -0.55899519 -0.56835181,
                              0.29089311 -0.55852377 0.18805081,
                              0.29290089 -0.55653328 -0.56835181,
                              0.29291159 -0.55593348 0.18805081,
                              0.29536271 -0.55451292 -0.56835181,
                              0.29537109 -0.55380762 0.18805081,
                              0.29817149 -0.55301172 -0.56835181,
                              0.2981773 -0.55222791 0.18805081,
                              0.30121911 -0.55208719 -0.56835181,
                              0.301222 -0.55125523 0.18805081 ]

                        }
                        normal 
                        Normal {
                          vector [  ]

                        }
                        coordIndex [ 0, 1, 3, -1, 2, 3, 5, -1,
                            4, 5, 7, -1, 6, 7, 9, -1,
                            8, 9, 11, -1, 10, 11, 13, -1,
                            12, 13, 15, -1, 14, 15, 17, -1,
                            17, 19, 18, -1, 19, 21, 20, -1,
                            21, 23, 22, -1, 23, 25, 24, -1,
                            25, 27, 26, -1, 27, 29, 28, -1,
                            29, 31, 30, -1, 31, 33, 32, -1,
                            32, 33, 35, -1, 34, 35, 37, -1,
                            36, 37, 39, -1, 38, 39, 41, -1,
                            40, 41, 43, -1, 42, 43, 45, -1,
                            44, 45, 47, -1, 46, 47, 49, -1,
                            49, 51, 50, -1, 51, 53, 52, -1,
                            53, 55, 54, -1, 55, 57, 56, -1,
                            57, 59, 58, -1, 59, 61, 60, -1,
                            19, 17, 49, -1, 63, 1, 0, -1,
                            61, 63, 62, -1, 48, 16, 32, -1,
                            67, 66, 64, -1, 68, 70, 71, -1,
                            66, 70, 68, -1, 65, 69, 71, -1,
                            67, 71, 70, -1, 64, 68, 69, -1,
                            72, 73, 75, -1, 74, 75, 77, -1,
                            76, 77, 79, -1, 78, 79, 81, -1,
                            80, 81, 83, -1, 82, 83, 85, -1,
                            84, 85, 87, -1, 86, 87, 89, -1,
                            89, 91, 90, -1, 91, 93, 92, -1,
                            93, 95, 94, -1, 95, 97, 96, -1,
                            97, 99, 98, -1, 99, 101, 100, -1,
                            101, 103, 102, -1, 103, 105, 104, -1,
                            104, 105, 107, -1, 106, 107, 109, -1,
                            108, 109, 111, -1, 110, 111, 113, -1,
                            112, 113, 115, -1, 114, 115, 117, -1,
                            116, 117, 119, -1, 118, 119, 121, -1,
                            121, 123, 122, -1, 123, 125, 124, -1,
                            125, 127, 126, -1, 127, 129, 128, -1,
                            129, 131, 130, -1, 131, 133, 132, -1,
                            91, 89, 121, -1, 135, 73, 72, -1,
                            133, 135, 134, -1, 120, 88, 104, -1,
                            136, 137, 139, -1, 138, 139, 141, -1,
                            140, 141, 143, -1, 142, 143, 145, -1,
                            144, 145, 147, -1, 146, 147, 149, -1,
                            148, 149, 151, -1, 150, 151, 153, -1,
                            153, 155, 154, -1, 155, 157, 156, -1,
                            157, 159, 158, -1, 159, 161, 160, -1,
                            161, 163, 162, -1, 163, 165, 164, -1,
                            165, 167, 166, -1, 167, 169, 168, -1,
                            168, 169, 171, -1, 170, 171, 173, -1,
                            172, 173, 175, -1, 174, 175, 177, -1,
                            176, 177, 179, -1, 178, 179, 181, -1,
                            180, 181, 183, -1, 182, 183, 185, -1,
                            185, 187, 186, -1, 187, 189, 188, -1,
                            189, 191, 190, -1, 191, 193, 192, -1,
                            193, 195, 194, -1, 195, 197, 196, -1,
                            155, 153, 185, -1, 199, 137, 136, -1,
                            197, 199, 198, -1, 184, 152, 168, -1,
                            200, 201, 203, -1, 202, 203, 205, -1,
                            204, 205, 207, -1, 206, 207, 209, -1,
                            208, 209, 211, -1, 210, 211, 213, -1,
                            212, 213, 215, -1, 214, 215, 217, -1,
                            217, 219, 218, -1, 219, 221, 220, -1,
                            221, 223, 222, -1, 223, 225, 224, -1,
                            225, 227, 226, -1, 227, 229, 228, -1,
                            229, 231, 230, -1, 231, 233, 232, -1,
                            232, 233, 235, -1, 234, 235, 237, -1,
                            236, 237, 239, -1, 238, 239, 241, -1,
                            240, 241, 243, -1, 242, 243, 245, -1,
                            244, 245, 247, -1, 246, 247, 249, -1,
                            249, 251, 250, -1, 251, 253, 252, -1,
                            253, 255, 254, -1, 255, 257, 256, -1,
                            257, 259, 258, -1, 259, 261, 260, -1,
                            219, 217, 249, -1, 263, 201, 200, -1,
                            261, 263, 262, -1, 248, 216, 232, -1,
                            2, 0, 3, -1, 4, 2, 5, -1,
                            6, 4, 7, -1, 8, 6, 9, -1,
                            10, 8, 11, -1, 12, 10, 13, -1,
                            14, 12, 15, -1, 16, 14, 17, -1,
                            16, 17, 18, -1, 18, 19, 20, -1,
                            20, 21, 22, -1, 22, 23, 24, -1,
                            24, 25, 26, -1, 26, 27, 28, -1,
                            28, 29, 30, -1, 30, 31, 32, -1,
                            34, 32, 35, -1, 36, 34, 37, -1,
                            38, 36, 39, -1, 40, 38, 41, -1,
                            42, 40, 43, -1, 44, 42, 45, -1,
                            46, 44, 47, -1, 48, 46, 49, -1,
                            48, 49, 50, -1, 50, 51, 52, -1,
                            52, 53, 54, -1, 54, 55, 56, -1,
                            56, 57, 58, -1, 58, 59, 60, -1,
                            61, 5, 3, -1, 59, 9, 7, -1,
                            53, 13, 11, -1, 51, 17, 15, -1,
                            45, 21, 19, -1, 43, 25, 23, -1,
                            37, 29, 27, -1, 35, 33, 31, -1,
                            29, 37, 35, -1, 27, 41, 39, -1,
                            21, 45, 43, -1, 19, 49, 47, -1,
                            13, 53, 51, -1, 11, 57, 55, -1,
                            5, 61, 59, -1, 3, 1, 63, -1,
                            59, 7, 5, -1, 51, 15, 13, -1,
                            43, 23, 21, -1, 35, 31, 29, -1,
                            27, 39, 37, -1, 19, 47, 45, -1,
                            11, 55, 53, -1, 3, 63, 61, -1,
                            59, 57, 9, -1, 43, 41, 25, -1,
                            27, 25, 41, -1, 11, 9, 57, -1,
                            51, 49, 17, -1, 62, 63, 0, -1,
                            60, 61, 62, -1, 56, 62, 0, -1,
                            56, 58, 60, -1, 52, 54, 56, -1,
                            48, 50, 52, -1, 44, 46, 48, -1,
                            40, 42, 44, -1, 36, 38, 40, -1,
                            32, 34, 36, -1, 28, 30, 32, -1,
                            24, 26, 28, -1, 20, 22, 24, -1,
                            24, 18, 20, -1, 12, 14, 16, -1,
                            16, 10, 12, -1, 0, 6, 8, -1,
                            0, 2, 4, -1, 56, 60, 62, -1,
                            0, 52, 56, -1, 40, 44, 48, -1,
                            48, 36, 40, -1, 16, 28, 32, -1,
                            16, 18, 24, -1, 8, 10, 16, -1,
                            0, 4, 6, -1, 48, 52, 0, -1,
                            32, 36, 48, -1, 16, 24, 28, -1,
                            0, 8, 16, -1, 16, 48, 0, -1,
                            65, 67, 64, -1, 69, 68, 71, -1,
                            64, 66, 68, -1, 67, 65, 71, -1,
                            66, 67, 70, -1, 65, 64, 69, -1,
                            74, 72, 75, -1, 76, 74, 77, -1,
                            78, 76, 79, -1, 80, 78, 81, -1,
                            82, 80, 83, -1, 84, 82, 85, -1,
                            86, 84, 87, -1, 88, 86, 89, -1,
                            88, 89, 90, -1, 90, 91, 92, -1,
                            92, 93, 94, -1, 94, 95, 96, -1,
                            96, 97, 98, -1, 98, 99, 100, -1,
                            100, 101, 102, -1, 102, 103, 104, -1,
                            106, 104, 107, -1, 108, 106, 109, -1,
                            110, 108, 111, -1, 112, 110, 113, -1,
                            114, 112, 115, -1, 116, 114, 117, -1,
                            118, 116, 119, -1, 120, 118, 121, -1,
                            120, 121, 122, -1, 122, 123, 124, -1,
                            124, 125, 126, -1, 126, 127, 128, -1,
                            128, 129, 130, -1, 130, 131, 132, -1,
                            133, 77, 75, -1, 131, 81, 79, -1,
                            125, 85, 83, -1, 123, 89, 87, -1,
                            117, 93, 91, -1, 115, 97, 95, -1,
                            109, 101, 99, -1, 107, 105, 103, -1,
                            101, 109, 107, -1, 99, 113, 111, -1,
                            93, 117, 115, -1, 91, 121, 119, -1,
                            85, 125, 123, -1, 83, 129, 127, -1,
                            77, 133, 131, -1, 75, 73, 135, -1,
                            131, 79, 77, -1, 123, 87, 85, -1,
                            115, 95, 93, -1, 107, 103, 101, -1,
                            99, 111, 109, -1, 91, 119, 117, -1,
                            83, 127, 125, -1, 75, 135, 133, -1,
                            131, 129, 81, -1, 115, 113, 97, -1,
                            99, 97, 113, -1, 83, 81, 129, -1,
                            123, 121, 89, -1, 134, 135, 72, -1,
                            132, 133, 134, -1, 128, 134, 72, -1,
                            128, 130, 132, -1, 124, 126, 128, -1,
                            120, 122, 124, -1, 116, 118, 120, -1,
                            112, 114, 116, -1, 108, 110, 112, -1,
                            104, 106, 108, -1, 100, 102, 104, -1,
                            96, 98, 100, -1, 92, 94, 96, -1,
                            96, 90, 92, -1, 84, 86, 88, -1,
                            88, 82, 84, -1, 72, 78, 80, -1,
                            72, 74, 76, -1, 128, 132, 134, -1,
                            72, 124, 128, -1, 112, 116, 120, -1,
                            120, 108, 112, -1, 88, 100, 104, -1,
                            88, 90, 96, -1, 80, 82, 88, -1,
                            72, 76, 78, -1, 120, 124, 72, -1,
                            104, 108, 120, -1, 88, 96, 100, -1,
                            72, 80, 88, -1, 88, 120, 72, -1,
                            138, 136, 139, -1, 140, 138, 141, -1,
                            142, 140, 143, -1, 144, 142, 145, -1,
                            146, 144, 147, -1, 148, 146, 149, -1,
                            150, 148, 151, -1, 152, 150, 153, -1,
                            152, 153, 154, -1, 154, 155, 156, -1,
                            156, 157, 158, -1, 158, 159, 160, -1,
                            160, 161, 162, -1, 162, 163, 164, -1,
                            164, 165, 166, -1, 166, 167, 168, -1,
                            170, 168, 171, -1, 172, 170, 173, -1,
                            174, 172, 175, -1, 176, 174, 177, -1,
                            178, 176, 179, -1, 180, 178, 181, -1,
                            182, 180, 183, -1, 184, 182, 185, -1,
                            184, 185, 186, -1, 186, 187, 188, -1,
                            188, 189, 190, -1, 190, 191, 192, -1,
                            192, 193, 194, -1, 194, 195, 196, -1,
                            197, 141, 139, -1, 195, 145, 143, -1,
                            189, 149, 147, -1, 187, 153, 151, -1,
                            181, 157, 155, -1, 179, 161, 159, -1,
                            173, 165, 163, -1, 171, 169, 167, -1,
                            165, 173, 171, -1, 163, 177, 175, -1,
                            157, 181, 179, -1, 155, 185, 183, -1,
                            149, 189, 187, -1, 147, 193, 191, -1,
                            141, 197, 195, -1, 139, 137, 199, -1,
                            195, 143, 141, -1, 187, 151, 149, -1,
                            179, 159, 157, -1, 171, 167, 165, -1,
                            163, 175, 173, -1, 155, 183, 181, -1,
                            147, 191, 189, -1, 139, 199, 197, -1,
                            195, 193, 145, -1, 179, 177, 161, -1,
                            163, 161, 177, -1, 147, 145, 193, -1,
                            187, 185, 153, -1, 198, 199, 136, -1,
                            196, 197, 198, -1, 192, 198, 136, -1,
                            192, 194, 196, -1, 188, 190, 192, -1,
                            184, 186, 188, -1, 180, 182, 184, -1,
                            176, 178, 180, -1, 172, 174, 176, -1,
                            168, 170, 172, -1, 164, 166, 168, -1,
                            160, 162, 164, -1, 156, 158, 160, -1,
                            160, 154, 156, -1, 148, 150, 152, -1,
                            152, 146, 148, -1, 136, 142, 144, -1,
                            136, 138, 140, -1, 192, 196, 198, -1,
                            136, 188, 192, -1, 176, 180, 184, -1,
                            184, 172, 176, -1, 152, 164, 168, -1,
                            152, 154, 160, -1, 144, 146, 152, -1,
                            136, 140, 142, -1, 184, 188, 136, -1,
                            168, 172, 184, -1, 152, 160, 164, -1,
                            136, 144, 152, -1, 152, 184, 136, -1,
                            202, 200, 203, -1, 204, 202, 205, -1,
                            206, 204, 207, -1, 208, 206, 209, -1,
                            210, 208, 211, -1, 212, 210, 213, -1,
                            214, 212, 215, -1, 216, 214, 217, -1,
                            216, 217, 218, -1, 218, 219, 220, -1,
                            220, 221, 222, -1, 222, 223, 224, -1,
                            224, 225, 226, -1, 226, 227, 228, -1,
                            228, 229, 230, -1, 230, 231, 232, -1,
                            234, 232, 235, -1, 236, 234, 237, -1,
                            238, 236, 239, -1, 240, 238, 241, -1,
                            242, 240, 243, -1, 244, 242, 245, -1,
                            246, 244, 247, -1, 248, 246, 249, -1,
                            248, 249, 250, -1, 250, 251, 252, -1,
                            252, 253, 254, -1, 254, 255, 256, -1,
                            256, 257, 258, -1, 258, 259, 260, -1,
                            261, 205, 203, -1, 259, 209, 207, -1,
                            253, 213, 211, -1, 251, 217, 215, -1,
                            245, 221, 219, -1, 243, 225, 223, -1,
                            237, 229, 227, -1, 235, 233, 231, -1,
                            229, 237, 235, -1, 227, 241, 239, -1,
                            221, 245, 243, -1, 219, 249, 247, -1,
                            213, 253, 251, -1, 211, 257, 255, -1,
                            205, 261, 259, -1, 203, 201, 263, -1,
                            259, 207, 205, -1, 251, 215, 213, -1,
                            243, 223, 221, -1, 235, 231, 229, -1,
                            227, 239, 237, -1, 219, 247, 245, -1,
                            211, 255, 253, -1, 203, 263, 261, -1,
                            259, 257, 209, -1, 243, 241, 225, -1,
                            227, 225, 241, -1, 211, 209, 257, -1,
                            251, 249, 217, -1, 262, 263, 200, -1,
                            260, 261, 262, -1, 256, 262, 200, -1,
                            256, 258, 260, -1, 252, 254, 256, -1,
                            248, 250, 252, -1, 244, 246, 248, -1,
                            240, 242, 244, -1, 236, 238, 240, -1,
                            232, 234, 236, -1, 228, 230, 232, -1,
                            224, 226, 228, -1, 220, 222, 224, -1,
                            224, 218, 220, -1, 212, 214, 216, -1,
                            216, 210, 212, -1, 200, 206, 208, -1,
                            200, 202, 204, -1, 256, 260, 262, -1,
                            200, 252, 256, -1, 240, 244, 248, -1,
                            248, 236, 240, -1, 216, 228, 232, -1,
                            216, 218, 224, -1, 208, 210, 216, -1,
                            200, 204, 206, -1, 248, 252, 200, -1,
                            232, 236, 248, -1, 216, 224, 228, -1,
                            200, 208, 216, -1, 216, 248, 200 ]
                        ccw TRUE
                        solid FALSE
                        convex TRUE
                        creaseAngle 0

                      }

                    }

                }

            }

        } ]

    }

}
