#VRML V2.0 utf8


Group {
  children 
    Group {
      children [ 
        Group {
          children 
            Transform {
              translation 0 0.001 0
              rotation 0 0 1  0
              scale 1 1 1
              scaleOrientation 0 0 1  0
              children 
                Transform {
                  translation 0.2017094 -0.185826 0.01288012
                  rotation -1.3767882e-007 1.2706116e-007 1  1.6509658
                  scale 0.99999994 1.0000001 1
                  scaleOrientation -4.3652885e-006 -0.00011970917 -0.99999881  0.041570663
                  children 
                    Shape {
                      appearance 
                      Appearance {
                        material 
                        Material {
                          diffuseColor 0.63999999 0.63999999 0.63999999

                        }

                      }
                      geometry 
                      IndexedFaceSet {
                        coord 
                        Coordinate {
                          point [ 0 0 0,
                              -0.07249999 -0.05499994 0.0099999905,
                              -0.07249999 -0.054106049 0.0099999905,
                              0.07249999 -0.054106049 0.0099999905,
                              0.07249999 -0.05499994 0.0099999905,
                              -0.07249999 -0.05499994 0.049999949,
                              -0.07249999 -0.054106049 0.049999949,
                              0.07249999 -0.054106049 0.049999949,
                              0.07249999 -0.05499994 0.049999949,
                              -0.07249999 0.053688701 0.0099999905,
                              -0.07249999 0.05499994 0.0099999905,
                              0.07249999 0.05499994 0.0099999905,
                              0.07249999 0.053688701 0.0099999905,
                              -0.07249999 0.053688701 0.049999949,
                              -0.07249999 0.05499994 0.049999949,
                              0.07249999 0.05499994 0.049999949,
                              0.07249999 0.053688701 0.049999949,
                              -0.18999989 0.18999989 0.0099999905,
                              -0.18999989 -0.190001 0.0099999905,
                              0.18999989 -0.190001 0.0099999905,
                              0.18999989 0.18999989 0.0099999905,
                              -0.189999 0.18999989 -0.0099999905,
                              -0.190001 -0.19000199 -0.0099999905,
                              0.18999989 -0.190001 -0.0099999905,
                              0.18999989 0.18999989 -0.0099999905 ]

                        }
                        normal 
                        Normal {
                          vector [  ]

                        }
                        coordIndex [ 2, 1, 6, -1, 6, 7, 2, -1,
                            7, 8, 3, -1, 1, 4, 5, -1,
                            1, 2, 4, -1, 8, 7, 5, -1,
                            13, 14, 9, -1, 14, 15, 10, -1,
                            15, 16, 11, -1, 16, 13, 12, -1,
                            9, 10, 12, -1, 16, 15, 13, -1,
                            17, 18, 20, -1, 21, 24, 22, -1,
                            17, 21, 22, -1, 18, 22, 19, -1,
                            19, 23, 20, -1, 21, 17, 24, -1,
                            1, 5, 6, -1, 7, 3, 2, -1,
                            8, 4, 3, -1, 4, 8, 5, -1,
                            2, 3, 4, -1, 7, 6, 5, -1,
                            14, 10, 9, -1, 15, 11, 10, -1,
                            16, 12, 11, -1, 13, 9, 12, -1,
                            10, 11, 12, -1, 15, 14, 13, -1,
                            18, 19, 20, -1, 24, 23, 22, -1,
                            18, 17, 22, -1, 22, 23, 19, -1,
                            23, 24, 20, -1, 17, 20, 24 ]
                        ccw TRUE
                        solid FALSE
                        convex TRUE
                        creaseAngle 0

                      }

                    }

                }

            }

        },
          
        Group {
          children 
            Transform {
              translation 0.020430399 -0.13046999 0.031875499
              rotation 0 0 1  0
              scale 1 1 1
              scaleOrientation 0 0 1  0

            }

        },
          
        Group {
          children 
            Transform {
              translation 0.0083632497 -0.00726345 0.018875301
              rotation 0 0 1  0
              scale 1 1 1
              scaleOrientation 0 0 1  0

            }

        },
          
        Group {
          children 
            Transform {
              translation 0.37053901 0.023504701 0.015832201
              rotation 0 0 1  0
              scale 1 1 1
              scaleOrientation 0 0 1  0

            }

        },
          
        Group {
          children 
            Transform {
              translation 0.237618 -0.0073362999 0.031959601
              rotation 0 0 1  0
              scale 1 1 1
              scaleOrientation 0 0 1  0

            }

        } ]

    }

}
