#VRML V2.0 utf8


Group {
  children 
    Group {
      children [ 
        Group {
          children 
            Transform {
              translation -0 0 -0
              rotation 0 0 1  0
              scale 1 1 1
              scaleOrientation 0 0 1  0
              children 
                Transform {
                  translation 0 0 0.046500001
                  rotation 0 0 1  1.570796
                  scale 0.162 0.15000001 0.046500001
                  scaleOrientation 0 0 1  0
                  children 
                    Shape {
                      appearance 
                      Appearance {
                        material 
                        Material {
                          diffuseColor 0.5 0.5 0.5

                        }

                      }
                      geometry 
                      IndexedFaceSet {
                        coord 
                        Coordinate {
                          point [ -1 -1 -1,
                              -1 1 -1,
                              1 1 -1,
                              1 -1 -1,
                              -1 -1 1,
                              -1 1 1,
                              1 1 1,
                              1 -1 1 ]

                        }
                        normal 
                        Normal {
                          vector [  ]

                        }
                        coordIndex [ 5, 1, 0, -1, 6, 2, 1, -1,
                            7, 3, 2, -1, 4, 0, 3, -1,
                            1, 2, 3, -1, 6, 5, 4, -1,
                            4, 5, 0, -1, 5, 6, 1, -1,
                            6, 7, 2, -1, 7, 4, 3, -1,
                            0, 1, 3, -1, 7, 6, 4 ]
                        ccw TRUE
                        solid FALSE
                        convex TRUE
                        creaseAngle 0

                      }

                    }

                }

            }

        },
          
        Group {
          children 
            Transform {
              translation 0.1416333 -0.1529005 0.099294811
              rotation 0 0 1  0
              scale 1 1 1
              scaleOrientation 0 0 1  0

            }

        },
          
        Group {
          children 
            Transform {
              translation -0.1433387 0.1541976 0.097908437
              rotation 0 0 1  0
              scale 1 1 1
              scaleOrientation 0 0 1  0

            }

        },
          
        Group {
          children 
            Transform {
              translation 0.1417152 0.15425929 0.097467653
              rotation 0 0 1  0
              scale 1 1 1
              scaleOrientation 0 0 1  0

            }

        },
          
        Group {
          children 
            Transform {
              translation -0.1412233 -0.1534176 0.098655902
              rotation 0 0 1  0
              scale 1 1 1
              scaleOrientation 0 0 1  0

            }

        } ]

    }

}
